n_sq_ar,c_ar,c_arinsee,l_ar,l_aroff,n_sq_co,surface,perimetre,objectid,longueur
750000002,2,75102,2ème Ardt,Bourse,750001537,991153,4554,2,4553
750000003,3,75103,3ème Ardt,Temple,750001537,1170882,4519,3,4519
750000012,12,75112,12ème Ardt,Reuilly,750001537,16314782,24089,12,24088
750000001,1,75101,1er Ardt,Louvre,750001537,1824612,6054,1,6054
750000004,4,75104,4ème Ardt,Hôtel-de-Ville,750001537,1600585,5420,4,5420
750000008,8,75108,8ème Ardt,Élysée,750001537,3880036,7880,8,7880
750000014,14,75114,14ème Ardt,Observatoire,750001537,5614877,10317,14,10316
750000019,19,75119,19ème Ardt,Buttes-Chaumont,750001537,6792651,11253,19,11252
750000020,20,75120,20ème Ardt,Ménilmontant,750001537,5983446,10704,20,10704
750000006,6,75106,6ème Ardt,Luxembourg,750001537,2153095,6483,6,6483
750000009,9,75109,9ème Ardt,Opéra,750001537,2178303,6471,9,6471
750000017,17,75117,17ème Ardt,Batignolles-Monceau,750001537,5668834,10775,17,10775
750000015,15,75115,15ème Ardt,Vaugirard,750001537,8494994,13678,15,13677
750000005,5,75105,5ème Ardt,Panthéon,750001537,2539374,6239,5,6238
750000007,7,75107,7ème Ardt,Palais-Bourbon,750001537,4090057,8099,7,8099
750000010,10,75110,10ème Ardt,Entrepôt,750001537,2891739,6739,10,6739
750000011,11,75111,11ème Ardt,Popincourt,750001537,3665441,8282,11,8281
750000013,13,75113,13ème Ardt,Gobelins,750001537,7149311,11546,13,11545
750000016,16,75116,16ème Ardt,Passy,750001537,16372542,17416,16,17415
750000018,18,75118,18ème Ardt,Buttes-Montmartre,750001537,5996051,9916,18,9916
