WKT,n_sq_ar,c_ar,c_arinsee,l_ar,l_aroff,n_sq_co,surface,perimetre,objectid,longueur,POPU,PS,UMP,NUL,Nbre_Hotels_Arr
"POLYGON ((652426.165399145 6862905.83409609,652383.463499146 6862792.7751961,652070.926799138 6862909.33189609,652070.884399143 6862909.3476961,651955.778999137 6862952.3494961,651675.617399131 6863056.8145961,651675.431999129 6863056.8838961,651670.7527",750000002.00000,2.00000,75102.00000,2ème Ardt,Bourse,750001537.00000,991153.00000,4554.00000,2.00000,4553.00000,20.7,5717,4209,256,38
"POLYGON ((653331.96019916 6863240.8076961,653336.415999164 6863236.7202961,653336.852099163 6863236.3162961,653337.644399163 6863235.5921961,653341.595699166 6863231.96679609,653348.184599166 6863225.93099609,653354.397299161 6863220.2184961,653358.76299",750000003.00000,3.00000,75103.00000,3ème Ardt,Temple,750001537.00000,1170882.00000,4519.00000,3.00000,4519.00000,35.1,10445,6579,533,22
"POLYGON ((656975.542499225 6859439.33519608,656984.926599231 6859439.17369608,656994.31209923 6859439.17589608,657003.696099226 6859439.34189609,657013.075799231 6859439.67159608,657022.448299226 6859440.16509608,657031.810799231 6859440.82199608,657041.",750000012.00000,12.00000,75112.00000,12ème Ardt,Reuilly,750001537.00000,16314782.00000,24089.00000,12.00000,24088.00000,130.3,41522,28931,2673,61
"POLYGON ((650706.580099116 6863530.8800961,650848.898999115 6863373.6285961,650873.778999118 6863355.8503961,650899.293999119 6863337.3959961,650977.47929912 6863310.3483961,650977.507399119 6863310.3385961,651120.087499122 6863260.3510961,651280.5245991",750000001.00000,1.00000,75101.00000,1er Ardt,Louvre,750001537.00000,1824612.00000,6054.00000,1.00000,6054.00000,18.4,4047,4414,255,66
"POLYGON ((653665.11319917 6861929.28639609,653699.364699167 6861707.41199609,653706.327199173 6861659.55129609,653706.497299169 6861658.36509609,653706.567699168 6861657.87279609,653707.071699169 6861654.43389609,653708.183699172 6861646.78889609,653708.",750000004.00000,4.00000,75104.00000,4ème Ardt,Hôtel-de-Ville,750001537.00000,1600585.00000,5420.00000,4.00000,5420.00000,32.2,7665,6281,490,30
"POLYGON ((650546.989499114 6863492.7393961,650536.021799109 6863490.0075961,650522.77669911 6863486.7836961,650519.814799114 6863486.0626961,650504.295499115 6863482.2852961,650501.315499111 6863481.5602961,650497.216299115 6863480.5620961,650508.5674991",750000008.00000,8.00000,75108.00000,8ème Ardt,Élysée,750001537.00000,3880036.00000,7880.00000,8.00000,7880.00000,40.8,5320,14001,553,132
"POLYGON ((651104.468399125 6860268.46949609,651318.067299126 6860160.39729608,651534.726499128 6860070.94039608,651538.310799132 6860069.59779609,651708.966999134 6860013.75489608,651694.534799134 6859844.45909608,651694.413299134 6859843.03339609,651670",750000014.00000,14.00000,75114.00000,14ème Ardt,Observatoire,750001537.00000,5614877.00000,10317.00000,14.00000,10316.00000,136.6,39551,26083,2348,84
"POLYGON ((655238.908099198 6866974.75789611,655290.660599197 6866959.48539611,655332.626799199 6866947.10079611,655332.678099196 6866947.05619611,655350.579499196 6866931.51199611,655473.197699202 6866825.03939611,655536.575799204 6866770.00669611,655543",750000019.00000,19.00000,75119.00000,19ème Ardt,Buttes-Chaumont,750001537.00000,6792651.00000,11253.00000,19.00000,11252.00000,165.1,51165,24483,2504,22
"POLYGON ((656928.37649923 6864099.2144961,656933.359499226 6864072.5752961,656934.306199225 6864067.5136961,656956.574299226 6863948.4663961,656957.648299227 6863942.7244961,656975.599799226 6863846.7545961,656975.808399226 6863845.6396961,656976.5892992",750000020.00000,20.00000,75120.00000,20ème Ardt,Ménilmontant,750001537.00000,5983446.00000,10704.00000,20.00000,10704.00000,184.5,61947,24299,2950,16
"POLYGON ((651908.509799139 6861756.24259609,651885.552199134 6861723.11679609,651851.188899138 6861614.36789609,651801.553799137 6861461.26789609,651764.594199135 6861346.94139609,651762.617199137 6861341.30759609,651674.284899135 6861126.59509609,651633",750000006.00000,6.00000,75106.00000,6ème Ardt,Luxembourg,750001537.00000,2153095.00000,6483.00000,6.00000,6483.00000,47.9,9037,12309,622,91
"POLYGON ((651581.140799131 6864870.35959611,651584.032299134 6864869.6935961,651713.376499137 6864906.8592961,651736.413799135 6864913.4787961,651743.761399133 6864915.5900961,651884.561899134 6864956.0475961,651923.726299139 6864967.7231961,651924.46219",750000009.00000,9.00000,75109.00000,9ème Ardt,Opéra,750001537.00000,2178303.00000,6471.00000,9.00000,6471.00000,58.0,15782,13344,873,161
"POLYGON ((648301.670999069 6864000.8548961,648292.157899071 6863981.3057961,648284.402499076 6863985.1125961,648256.208999071 6863998.9559961,648217.847399073 6864017.7922961,648143.531499066 6864054.2778961,647959.725499069 6864145.0081961,647921.891199",750000017.00000,17.00000,75117.00000,17ème Ardt,Batignolles-Monceau,750001537.00000,5668834.00000,10775.00000,17.00000,10775.00000,161.9,31384,43739,2325,104
"POLYGON ((648584.96359908 6861576.30659609,648698.566699077 6861464.29019609,648704.544999082 6861470.24149609,648906.882999085 6861269.31519609,649081.732699085 6861096.60309609,649168.346099091 6861011.26859609,649220.126599087 6861038.93409609,649233.",750000015.00000,15.00000,75115.00000,15ème Ardt,Vaugirard,750001537.00000,8494994.00000,13678.00000,15.00000,13677.00000,223.9,50388,60357,3765,94
"POLYGON ((653357.221899165 6860864.91269609,653386.552399164 6860831.72619609,653473.270199165 6860729.45849609,653408.360099166 6860674.61699609,653404.299499168 6860670.54669609,653400.510199166 6860666.22339609,653399.620199165 6860665.12049609,653393",750000005.00000,5.00000,75105.00000,5ème Ardt,Panthéon,750001537.00000,2539374.00000,6239.00000,5.00000,6238.00000,61.2,16702,13004,1026,70
"POLYGON ((650178.890199103 6862772.55879609,650181.70399911 6862771.2148961,650458.953399112 6862639.8595961,650495.13629911 6862622.43779609,650495.604899114 6862622.21229609,650498.713299109 6862620.8159961,650558.832299113 6862593.6826961,650629.33959",750000007.00000,7.00000,75107.00000,7ème Ardt,Palais-Bourbon,750001537.00000,4090057.00000,8099.00000,7.00000,8099.00000,62.9,7317,18595,699,56
"POLYGON ((653409.97249916 6865115.5339961,653422.361999168 6865114.2014961,653540.81579917 6865101.4619961,653561.71719917 6865099.21609611,653563.505599165 6865099.0235961,653571.460599171 6865098.1683961,653614.733599166 6865093.5159961,653621.83449916",750000010.00000,10.00000,75110.00000,10ème Ardt,Entrepôt,750001537.00000,2891739.00000,6739.00000,10.00000,6739.00000,90.1,27856,12991,1189,98
"POLYGON ((655697.970499205 6861737.74339609,655758.582099203 6861618.04759609,655761.651999209 6861611.98479609,655765.647699203 6861604.09329609,655803.297599208 6861529.73549609,655852.384199208 6861432.79369609,655856.727299212 6861424.21639609,655856",750000011.00000,11.00000,75111.00000,11ème Ardt,Popincourt,750001537.00000,3665441.00000,8282.00000,11.00000,8281.00000,154.2,46972,22346,2154,61
"POLYGON ((654119.169799176 6859954.67739608,654269.366399183 6859741.13939608,654276.177999183 6859731.45529609,654376.508099185 6859604.72339608,654410.633999186 6859561.58769608,654560.913899188 6859384.01679608,654695.41519919 6859220.87929608,654730.",750000013.00000,13.00000,75113.00000,13ème Ardt,Gobelins,750001537.00000,7149311.00000,11546.00000,13.00000,11545.00000,171.1,55350,29456,3410,39
"POLYGON ((646773.334699048 6864505.1163961,647009.255799051 6864458.3201961,647025.33099905 6864465.4219961,647041.013499047 6864472.3501961,647052.79709905 6864477.5559961,647073.499599051 6864486.7018961,647091.818099049 6864494.7946961,647133.75579905",750000016.00000,16.00000,75116.00000,16ème Ardt,Passy,750001537.00000,16372542.00000,17416.00000,16.00000,17415.00000,169.9,16723,59309,1705,65
"POLYGON ((653492.987499162 6865245.5562961,653409.97249916 6865115.5339961,653399.612799166 6865116.4076961,653384.940199165 6865117.64519611,653358.026799162 6865118.5817961,653310.313999165 6865119.4828961,653256.802099164 6865120.4936961,653179.069199",750000018.00000,18.00000,75118.00000,18ème Ardt,Buttes-Montmartre,750001537.00000,5996051.00000,9916.00000,18.00000,9916.00000,187.7,55569,23469,2761,47
